Keyword Assisted Topic Model Replication
…
keyATM_doc <- keyATM_read(docs)

ℹ Using quanteda dfm.

key_viz <- visualize_keywords(docs = keyATM_doc, keywords = keys_list)
values_fig(key_viz)

# A tibble: 423 × 5
# Groups:   Topic [21]
   Word       WordCount `Proportion(%)` Ranking Topic           
   <chr>          <int>           <dbl>   <int> <fct>           
 1 cost           93266           0.381       1 1_Macroeconomics
 2 interest       45104           0.184       2 1_Macroeconomics
 3 budget         31754           0.13        3 1_Macroeconomics
 4 tax            26112           0.107       4 1_Macroeconomics
 5 bank           20682           0.084       5 1_Macroeconomics
 6 treasury       16019           0.065       6 1_Macroeconomics
 7 price          12339           0.05        7 1_Macroeconomics
 8 central         8497           0.035       8 1_Macroeconomics
 9 deficit         5282           0.022       9 1_Macroeconomics
10 industrial      5254           0.021      10 1_Macroeconomics
# ℹ 413 more rows
…
